<?xml version="1.0" encoding="UTF-8" standalone="no"?>
<!-- Created with Inkscape (http://www.inkscape.org/) -->

<svg
   width="193.72328"
   height="105.02449"
   viewBox="0 0 51.255953 27.78773"
   version="1.1"
   id="svg26344"
   xmlns="http://www.w3.org/2000/svg"
   xmlns:svg="http://www.w3.org/2000/svg">
  <defs
     id="defs26341">
    <rect
       x="129.31641"
       y="281.29651"
       width="181.30959"
       height="99.986916"
       id="rect2101" />
  </defs>
  <g
     id="layer1"
     transform="translate(-27.364473,-68.292596)">
    <text
       xml:space="preserve"
       transform="matrix(0.26458333,0,0,0.26458333,-4.3253921,-4.4437118)"
       id="text2099"
       style="font-size:18.6667px;line-height:1.25;font-family:'Lato';-inkscape-font-specification:'Lato';text-align:start;white-space:pre;shape-inside:url(#rect2101)"
       x="0.55200166"
       y="0"><tspan
         x="129.31641"
         y="298.65691"
         id="tspan48"><tspan
           style="font-family:Lato;-inkscape-font-specification:Lato"
           id="tspan46">Changing the kerning </tspan></tspan><tspan
         x="129.31641"
         y="322.36595"
         id="tspan52"><tspan
           style="font-family:Lato;-inkscape-font-specification:Lato"
           id="tspan50">allows you to create </tspan></tspan><tspan
         x="129.31641"
         y="346.075"
         id="tspan56"><tspan
           style="font-family:Lato;-inkscape-font-specification:Lato"
           id="tspan54">more elegant text </tspan></tspan><tspan
         x="129.31641"
         y="369.78404"
         id="tspan60"><tspan
           style="font-family:Lato;-inkscape-font-specification:Lato"
           id="tspan58">blocks.</tspan></tspan></text>
  </g>
</svg>
