<?xml version="1.0" encoding="UTF-8" standalone="no"?>
<svg xmlns:rdf="http://www.w3.org/1999/02/22-rdf-syntax-ns#" xmlns="http://www.w3.org/2000/svg" version="1.1" xmlns:cc="http://creativecommons.org/ns#" xmlns:xlink="http://www.w3.org/1999/xlink" viewBox="0 0 24 24.001186" xmlns:dc="http://purl.org/dc/elements/1.1/">
<metadata>
<rdf:RDF>
<cc:Work rdf:about="">
<dc:format>image/svg+xml</dc:format>
<dc:type rdf:resource="http://purl.org/dc/dcmitype/StillImage"/>
</cc:Work>
</rdf:RDF>
</metadata>
<defs>
<linearGradient id="b" y2="121.3373" gradientUnits="userSpaceOnUse" x2="97.37693" gradientTransform="matrix(.97755 -.210707 .218379 1.013142 -30.17658 18.69473)" y1="118.015" x1="94.58905">
<stop stop-color="#f3ff49" offset="0"/>
<stop stop-color="#ffa01e" offset="1"/>
</linearGradient>
<linearGradient id="c" y2="247.0562" gradientUnits="userSpaceOnUse" x2="497.458" gradientTransform="rotate(-12.16378,-271.0474,2116.582)" y1="250.0241" x1="500.0935">
<stop stop-color="#ffbf00" offset="0"/>
<stop stop-color="#fff" offset="1"/>
</linearGradient>
<linearGradient id="d" y2="120.936" gradientUnits="userSpaceOnUse" x2="87.87154" gradientTransform="rotate(-12.16379,92.75996,132.2011)" y1="124.9658" x1="94.05392">
<stop offset="0"/>
<stop stop-opacity="0" offset="1"/>
</linearGradient>
<linearGradient id="a" y2="129.0092" gradientUnits="userSpaceOnUse" x2="86.0206" gradientTransform="translate(.30283 .11441)" y1="115.2534" x1="75.09241">
<stop stop-color="#5a5a5a" offset="0"/>
<stop offset="1"/>
</linearGradient>
</defs>
<g transform="matrix(1 0 0 .995256 -73 -112.46393)">
<path fill-rule="evenodd" fill="url(#c)" d="m84.5 130.9858 3 1 5.27118-5.8333c-1.1209-2.8273-4.58031-4.639-8.13786-3.1099l-0.13332 7.9432z"/>
<path fill-rule="evenodd" d="m84.49792 134.0861 1.08291 0.2781 1.91917-2.2498c-0.27184-0.9435-2-2-2.92873-1.0611l-0.07335 3.0328z"/>
<path fill-rule="evenodd" fill="url(#b)" d="m84.49115 123.548c2.12781-1.993 6.94819-0.9861 8.2798 2.8187l2.72905-7.2523c-2.5 0-0.5-6-7-6l-4.00885 10.4336z"/>
<rect style="color:#000000" height="24" width="24" y="113" x="73" fill="none"/>
<path stroke-linejoin="round" d="m74.5 114.5c8.7987-1.1362 3.13297 5.1169 2.0058 6.7979-5.34734 8.0336 0.79703 2.2021 3.79703 3.2021 1.89737 0.6325 1.00572 3.2048 0.5 4.6144-0.53123 1.4807-0.73153 3.537 0 5 1 2 3.57567 2.5 5 2.5 1.5 0 3.57181-0.5306 5-1.7138 1.53957-1.2755 2.78578-3.2999 3-4.2283" stroke="url(#a)" stroke-linecap="round" stroke-width="1.0023805" fill="none"/>
<path stroke-linejoin="round" d="m95.5 119.6144-2.72906 6.7523v0l-6.59179 7.0164c-1.67915 1.7313-1.67915 1.2313-1.67703-0.6615l-0.01098-9.1736 4.00886-9.9336" stroke="#000" stroke-linecap="round" stroke-width=".9846153" fill="none"/>
<path d="m92.77094 126.3667c-0.54138-1.0094-1.08275-2.0188-1.62412-3.0282-1.0546-0.3859-2.10919-0.7718-3.16379-1.1577-1.19908 0.2928-2.39816 0.5856-3.59725 0.8785" stroke="url(#d)" stroke-linecap="round" stroke-width="1.0023805px" fill="none"/>
<path d="m88.07236 120.9146 2.5-6" stroke="#fff" stroke-linecap="round" stroke-width="1.0023805px" fill="none"/>
</g>
</svg>
