<?xml version="1.0" encoding="UTF-8" standalone="no"?>
<svg xmlns:rdf="http://www.w3.org/1999/02/22-rdf-syntax-ns#" xmlns="http://www.w3.org/2000/svg" version="1.1" xmlns:cc="http://creativecommons.org/ns#" xmlns:xlink="http://www.w3.org/1999/xlink" viewBox="0 0 16 16" xmlns:dc="http://purl.org/dc/elements/1.1/">
<metadata>
<rdf:RDF>
<cc:Work rdf:about="">
<dc:format>image/svg+xml</dc:format>
<dc:type rdf:resource="http://purl.org/dc/dcmitype/StillImage"/>
</cc:Work>
</rdf:RDF>
</metadata>
<defs>
<linearGradient id="a" y2="181.7098" gradientUnits="userSpaceOnUse" x2="977.9335" y1="178.3186" x1="968.8881">
<stop stop-color="#5a5a5a" offset="0"/>
<stop offset="1"/>
</linearGradient>
<linearGradient id="b" y2="184.8026" gradientUnits="userSpaceOnUse" x2="979.8044" y1="182.4686" x1="974.1975">
<stop stop-color="#fff" offset="0"/>
<stop stop-color="#aaa" offset="1"/>
</linearGradient>
</defs>
<g stroke-linecap="square" transform="translate(-55,-212.99997)">
<path d="m55.5 213.5h1" stroke="#000" stroke-width="1px" fill="none"/>
<path d="m55.5 185.5h1" transform="translate(3 27.99997)" stroke="#000" stroke-width="1px" fill="none"/>
<path d="m55.5 185.5h1" transform="translate(6 27.99997)" stroke="#000" stroke-width="1px" fill="none"/>
<path d="m55.5 185.5h1" transform="translate(9 27.99997)" stroke="#000" stroke-width="1px" fill="none"/>
<path d="m55.5 185.5h1" transform="translate(12 27.99997)" stroke="#000" stroke-width="1px" fill="none"/>
<path d="m55.5 185.5h1" transform="translate(2 42.99997)" stroke="#000" stroke-width="1px" fill="none"/>
<path d="m55.5 185.5h1" transform="translate(5 42.99997)" stroke="#000" stroke-width="1px" fill="none"/>
<path d="m55.5 185.5h1" transform="translate(8 42.99997)" stroke="#000" stroke-width="1px" fill="none"/>
<path d="m55.5 185.5h1" transform="translate(11 42.99997)" stroke="#000" stroke-width="1px" fill="none"/>
<path d="m55.5 185.5h1" transform="translate(14 42.99997)" stroke="#000" stroke-width="1px" fill="none"/>
<path d="m55.5 215.5v1" stroke="#000" stroke-width="1px" fill="none"/>
<path d="m55.5 187.5v1" transform="translate(0 30.99997)" stroke="#000" stroke-width="1px" fill="none"/>
<path d="m55.5 187.5v1" transform="translate(0 33.99997)" stroke="#000" stroke-width="1px" fill="none"/>
<path d="m55.5 187.5v1" transform="translate(0 36.99997)" stroke="#000" stroke-width="1px" fill="none"/>
<path d="m55.5 187.5v1" transform="translate(0 39.99997)" stroke="#000" stroke-width="1px" fill="none"/>
<path d="m55.5 187.5v1" transform="translate(15 37.99997)" stroke="#000" stroke-width="1px" fill="none"/>
<path d="m55.5 187.5v1" transform="translate(15 34.99997)" stroke="#000" stroke-width="1px" fill="none"/>
<path d="m55.5 187.5v1" transform="translate(15 31.99997)" stroke="#000" stroke-width="1px" fill="none"/>
<path d="m55.5 187.5v1" transform="translate(15 28.99997)" stroke="#000" stroke-width="1px" fill="none"/>
<path d="m55.5 187.5v1" transform="translate(15 25.99997)" stroke="#000" stroke-width="1px" fill="none"/>
<path stroke-linejoin="round" style="color:#000000" d="m969.5 182.5h11l-4-5h-11l4 5z" fill-rule="evenodd" transform="matrix(.752527 0 0 .752527 -669.20925 88.802701)" stroke="url(#a)" stroke-miterlimit="0" stroke-width=".9999474" fill="url(#b)"/>
<path stroke-linejoin="round" style="color:#000000" d="m969.5 182.5h11l-4-5h-11l4 5z" fill-rule="evenodd" transform="matrix(.752527 0 0 .752527 -669.2092 85.8027)" stroke="url(#a)" stroke-miterlimit="0" stroke-width=".9999474" fill="url(#b)"/>
<path stroke-linejoin="round" style="color:#000000" d="m969.5 182.5h11l-4-5h-11l4 5z" fill-rule="evenodd" transform="matrix(.752527 0 0 .752527 -669.2092 82.8027)" stroke="url(#a)" stroke-miterlimit="0" stroke-width=".9999474" fill="url(#b)"/>
</g>
</svg>
