<?xml version="1.0" encoding="UTF-8" standalone="no"?>
<svg xmlns:rdf="http://www.w3.org/1999/02/22-rdf-syntax-ns#" xmlns="http://www.w3.org/2000/svg" version="1.1" xmlns:cc="http://creativecommons.org/ns#" xmlns:xlink="http://www.w3.org/1999/xlink" viewBox="0 0 12.180031 12.006089" xmlns:dc="http://purl.org/dc/elements/1.1/">
<metadata>
<rdf:RDF>
<cc:Work rdf:about="">
<dc:format>image/svg+xml</dc:format>
<dc:type rdf:resource="http://purl.org/dc/dcmitype/StillImage"/>
</cc:Work>
</rdf:RDF>
</metadata>
<defs>
<linearGradient id="a" y2="240.8761" gradientUnits="userSpaceOnUse" x2="717.6405" gradientTransform="matrix(1.016495,0,0,-1,-11.43409,493.3688)" y1="248.9147" x1="713.5084">
<stop stop-color="#fff" offset="0"/>
<stop stop-color="#aaa" offset="1"/>
</linearGradient>
</defs>
<g transform="matrix(.823787 0 0 .645052 -582.40402 -152.19034)">
<rect style="color:#000000" fill-opacity="0" height="18.61259" width="14.52438" y="235.935" x="707.1481" stroke-width=".83269"/>
<g stroke="#000" stroke-linecap="round" transform="translate(1.571853e-4,-2.424845)">
<path style="color:#000000" d="m719.0955 243.8639c0.731 0.7174 1.4121 1.671 2.0553 2.9106-1.8636 3.5913-3.4071 5.0981-6.2026 5.0981-2.7954 0-5.0127-2.2526-7.3147-5.1815 1.8637-3.5914 4.1993-4.6987 6.6776-4.6987 0.4329 0 0.8512 0.0286 1.2558 0.0902 0.3858 0.0588 0.7592 0.1476 1.1212 0.2704" fill-rule="evenodd" stroke-width="1.0974514" fill="url(#a)"/>
<path style="color:#000000" d="m714.4315 249.1956 0.0759 6.8378m2.3915-7.2381 1.2947 6.0595m1.154-6.9908 1.7323 4.5954m-9.0763-3.4589-1.6691 5.8609m-0.6448-7.5215-1.9726 4.9818" stroke-width="1.0974512" fill="none"/>
</g>
</g>
</svg>
