<?xml version="1.0" encoding="UTF-8" standalone="no"?>
<svg xmlns:rdf="http://www.w3.org/1999/02/22-rdf-syntax-ns#" xmlns="http://www.w3.org/2000/svg" version="1.1" xmlns:cc="http://creativecommons.org/ns#" viewBox="0 0 16 16" xmlns:dc="http://purl.org/dc/elements/1.1/">
<metadata>
<rdf:RDF>
<cc:Work rdf:about="">
<dc:format>image/svg+xml</dc:format>
<dc:type rdf:resource="http://purl.org/dc/dcmitype/StillImage"/>
</cc:Work>
</rdf:RDF>
</metadata>
<g transform="translate(45,-175)">
<rect style="color:#000000" height="16" width="16" y="175" x="-45" fill="none"/>
<rect height="4.069275" width="4.069275" y="176.8852" x="-43.13489" fill="#fff"/>
<rect height="4.069275" width="4.069275" y="185.0237" x="-43.13489" fill="#4d4d4d"/>
<rect transform="scale(-1)" height="4.069275" width="4.069275" y="-189.093" x="30.92706" fill="#808080"/>
<rect transform="scale(1,-1)" height="4.069275" width="4.069275" y="-180.9545" x="-34.99632" fill="#e6e6e6"/>
<rect transform="scale(-1)" height="4.069275" width="4.069275" y="-185.0237" x="34.99634" fill="#ccc"/>
<rect transform="scale(1,-1)" height="4.069275" width="4.069275" y="-180.9545" x="-39.06561" fill="#999"/>
<rect transform="scale(-1)" height="4.069275" width="4.069275" y="-185.0237" x="30.92705" fill="#fff"/>
<rect height="4.069275" width="4.069275" y="185.0237" x="-39.06561" fill="#b3b3b3"/>
<rect height="4.069275" width="4.069275" y="180.9545" x="-43.13489" fill="#b3b3b3"/>
</g>
</svg>
