<?xml version="1.0" encoding="UTF-8" standalone="no"?>
<svg xmlns:rdf="http://www.w3.org/1999/02/22-rdf-syntax-ns#" xmlns="http://www.w3.org/2000/svg" version="1.1" xmlns:cc="http://creativecommons.org/ns#" viewBox="0 0 16 16" xmlns:dc="http://purl.org/dc/elements/1.1/">
<metadata>
<rdf:RDF>
<cc:Work rdf:about="">
<dc:format>image/svg+xml</dc:format>
<dc:type rdf:resource="http://purl.org/dc/dcmitype/StillImage"/>
</cc:Work>
</rdf:RDF>
</metadata>
<g stroke-linejoin="round" stroke-linecap="round">
<path fill="none" stroke="#646464" d="m0.5 15.5c0-5 2.5-7.5 7.5-7.5 4 0 7.5-2.5 7.5-7.5"/>
<rect fill-opacity=".4" height="3" width="3" stroke="blue" y="6.5" x="6.5" fill="#6464ff"/>
<path d="m2 2h7v-2l3 2.5-3 2.5v-2h-7z"/>
<path d="m14 14h-7v2l-3-2.5 3-2.5v2h7z"/>
</g>
</svg>
