<?xml version="1.0" encoding="UTF-8" standalone="no"?>
<svg xmlns:rdf="http://www.w3.org/1999/02/22-rdf-syntax-ns#" xmlns="http://www.w3.org/2000/svg" version="1.1" xmlns:cc="http://creativecommons.org/ns#" xmlns:xlink="http://www.w3.org/1999/xlink" viewBox="0 0 16 16" xmlns:dc="http://purl.org/dc/elements/1.1/">
<metadata>
<rdf:RDF>
<cc:Work rdf:about="">
<dc:format>image/svg+xml</dc:format>
<dc:type rdf:resource="http://purl.org/dc/dcmitype/StillImage"/>
</cc:Work>
</rdf:RDF>
</metadata>
<defs>
<linearGradient id="a" gradientUnits="userSpaceOnUse" x2="19" x1="-3">
<stop stop-color="#fff" offset="0"/>
<stop stop-color="#98b6d3" offset="1"/>
</linearGradient>
</defs>
<g stroke="#222" stroke-linecap="round" stroke-width="2px" fill="none">
<path d="m1 5h5"/>
<path d="m1 8h5"/>
<path d="m1 11h5"/>
<path d="m1 14h5"/>
</g>
<rect stroke-linejoin="round" height="2" width="15" stroke="#222" y=".5" x=".5" fill="url(#a)"/>
<path d="m14 15h-1v-8h-2l2.5-3 2.5 3h-2z"/>
</svg>
