<?xml version="1.0" encoding="UTF-8" standalone="no"?>
<svg xmlns:rdf="http://www.w3.org/1999/02/22-rdf-syntax-ns#" xmlns="http://www.w3.org/2000/svg" version="1.1" xmlns:cc="http://creativecommons.org/ns#" viewBox="0 0 16 16" xmlns:dc="http://purl.org/dc/elements/1.1/">
<metadata>
<rdf:RDF>
<cc:Work rdf:about="">
<dc:format>image/svg+xml</dc:format>
<dc:type rdf:resource="http://purl.org/dc/dcmitype/StillImage"/>
</cc:Work>
</rdf:RDF>
</metadata>
<path fill-opacity=".6" fill="#8ab3df" d="m5.5 15.5-5-2c0-7.5 5.5-13 13-13l2 5c-7 0-10 3-10 10z"/>
<path d="m15.5 5.5c-7 0-10 3-10 10m-5-2c0-7.5 5.5-13 13-13" stroke="#6464ff" stroke-linecap="round" fill="none"/>
<rect stroke-linejoin="round" fill-opacity=".4" height="3" width="3" stroke="#00f" y=".5" x="5.5" fill="#6464ff"/>
<rect stroke-linejoin="round" fill-opacity=".4" height="3" width="3" stroke="#00f" y="5.5" x=".5" fill="#6464ff"/>
<rect stroke-linejoin="round" fill-opacity=".4" height="3" width="3" stroke="#00f" y="4.5" x="9.5" fill="#6464ff"/>
<rect stroke-linejoin="round" fill-opacity=".4" height="3" width="3" stroke="#00f" y="9.5" x="4.5" fill="#6464ff"/>
</svg>
